id;notes;status;product_type_identifier;created_by;created_date;last_modified_by;last_modified_date;version;order_id
1;function;SENT;generating;Practical hacking;2022-01-06T10:28:28;Awesome Soft;2022-01-06T04:20:38;73868;1
2;Central mobile driver;OUT_OF_STOCK;Dollar SCSI Martinique;interfaces;2022-01-05T19:35:56;California Garden Denar;2022-01-06T05:32:11;42284;2
3;client-driven Bedfordshire;FULFILLED;human-resource Investment Small;payment;2022-01-06T13:23:52;fuchsia Up-sized Configuration;2022-01-06T06:42:14;74828;3
4;invoice International silver;IN_REVIEW;improvement action-items;microchip;2022-01-06T11:12:50;Associate navigating;2022-01-06T06:37:26;41952;4
5;leading-edge wireless;SENT;deposit orchestrate;edge;2022-01-05T20:46:56;Loan Minnesota Buckinghamshire;2022-01-05T18:54:52;50875;5
6;transmit Cambridgeshire;COMPLETED;Credit;local calculate;2022-01-05T23:27:56;El lavender Granite;2022-01-06T10:37:56;67007;6
7;Gambia Branding;COMPLETED;Borders Gloves Togo;matrix;2022-01-06T10:12:42;Shoes program;2022-01-06T10:11:18;99627;7
8;asymmetric;OUT_OF_STOCK;Tunisia Berkshire index;Vermont;2022-01-05T22:26:11;quantifying;2022-01-05T15:58:48;56525;8
9;RAM Cambridgeshire;IN_REVIEW;Glen Virginia monitor;circuit;2022-01-05T15:19:44;Up-sized Rustic mission-critical;2022-01-06T10:23:26;80171;9
10;Engineer Bedfordshire;OUT_OF_STOCK;Functionality;compressing Rubber;2022-01-06T03:48:05;Handmade quantify gold;2022-01-05T18:29:57;75409;10
